testing/pset4/spi.vcd
$date
	Thu Sep 22 08:44:42 2022
$end
$version
	Icarus Verilog
$end
$timescale
	1ps
$end
$scope module spi_tb $end
$var wire 1 ! sel_out $end
$var wire 1 " data_out $end
$var wire 1 # clk_out $end
$var reg 1 $ clk_in $end
$var reg 16 % msg_in [15:0] $end
$var reg 1 & rst_in $end
$var reg 1 ' trigger_in $end
$scope module uut $end
$var wire 1 $ clk_in $end
$var wire 16 ( msg_in [15:0] $end
$var wire 1 & rst_in $end
$var wire 1 ' trigger_in $end
$var wire 1 " data_out $end
$var reg 8 ) bit_counter [7:0] $end
$var reg 1 # clk_out $end
$var reg 16 * msg_buffer [15:0] $end
$var reg 1 ! sel_out $end
$upscope $end
$scope begin $ivl_for_loop0 $end
$var integer 32 + i [31:0] $end
$upscope $end
$upscope $end
$enddefinitions $end
#0
$dumpvars
b0 +
bx *
bx )
b1011111011101111 (
0'
0&
b1011111011101111 %
0$
x#
x"
x!
$end
#5000
1$
#10000
0$
1&
#15000
0"
1!
b0 *
1$
#20000
0$
0&
#25000
1$
#30000
0$
#35000
1$
#40000
0$
#45000
1$
#50000
0$
#55000
1$
#60000
0$
#65000
1$
#70000
0$
1'
#75000
1"
b1 )
0#
0!
b1011111011101111 *
1$
#80000
0$
0'
#85000
b10 )
1$
#90000
0$
b1 +
#95000
b11 )
1$
#100000
0$
b10 +
#105000
b100 )
1$
#110000
0$
b11 +
#115000
1#
b101 )
1$
#120000
0$
b100 +
#125000
b110 )
1$
#130000
0$
b101 +
#135000
b111 )
1$
#140000
0$
b110 +
#145000
b1000 )
1$
#150000
0$
b111 +
#155000
0"
0#
b111110111011110 *
b1001 )
1$
#160000
0$
b1000 +
#165000
b1010 )
1$
#170000
0$
b1001 +
#175000
b1011 )
1$
#180000
0$
b1010 +
#185000
b1100 )
1$
#190000
0$
b1011 +
#195000
1#
b1101 )
1$
#200000
0$
b1100 +
#205000
b1110 )
1$
#210000
0$
b1101 +
#215000
b1111 )
1$
#220000
0$
b1110 +
#225000
b10000 )
1$
#230000
0$
b1111 +
#235000
1"
0#
b1111101110111100 *
b10001 )
1$
#240000
0$
b10000 +
#245000
b10010 )
1$
#250000
0$
b10001 +
#255000
b10011 )
1$
#260000
0$
b10010 +
#265000
b10100 )
1$
#270000
0$
b10011 +
#275000
1#
b10101 )
1$
#280000
0$
b10100 +
#285000
b10110 )
1$
#290000
0$
b10101 +
#295000
b10111 )
1$
#300000
0$
b10110 +
#305000
b11000 )
1$
#310000
0$
b10111 +
#315000
0#
b1111011101111000 *
b11001 )
1$
#320000
0$
b11000 +
#325000
b11010 )
1$
#330000
0$
b11001 +
#335000
b11011 )
1$
#340000
0$
b11010 +
#345000
b11100 )
1$
#350000
0$
b11011 +
#355000
1#
b11101 )
1$
#360000
0$
b11100 +
#365000
b11110 )
1$
#370000
0$
b11101 +
#375000
b11111 )
1$
#380000
0$
b11110 +
#385000
b100000 )
1$
#390000
0$
b11111 +
#395000
0#
b1110111011110000 *
b100001 )
1$
#400000
0$
b100000 +
#405000
b100010 )
1$
#410000
0$
b100001 +
#415000
b100011 )
1$
#420000
0$
b100010 +
#425000
b100100 )
1$
#430000
0$
b100011 +
#435000
1#
b100101 )
1$
#440000
0$
b100100 +
#445000
b100110 )
1$
#450000
0$
b100101 +
#455000
b100111 )
1$
#460000
0$
b100110 +
#465000
b101000 )
1$
#470000
0$
b100111 +
#475000
0#
b1101110111100000 *
b101001 )
1$
#480000
0$
b101000 +
#485000
b101010 )
1$
#490000
0$
b101001 +
#495000
b101011 )
1$
#500000
0$
b101010 +
#505000
b101100 )
1$
#510000
0$
b101011 +
#515000
1#
b101101 )
1$
#520000
0$
b101100 +
#525000
b101110 )
1$
#530000
0$
b101101 +
#535000
b101111 )
1$
#540000
0$
b101110 +
#545000
b110000 )
1$
#550000
0$
b101111 +
#555000
0#
b1011101111000000 *
b110001 )
1$
#560000
0$
b110000 +
#565000
b110010 )
1$
#570000
0$
b110001 +
#575000
b110011 )
1$
#580000
0$
b110010 +
#585000
b110100 )
1$
#590000
0$
b110011 +
#595000
1#
b110101 )
1$
#600000
0$
b110100 +
#605000
b110110 )
1$
#610000
0$
b110101 +
#615000
b110111 )
1$
#620000
0$
b110110 +
#625000
b111000 )
1$
#630000
0$
b110111 +
#635000
0"
0#
b111011110000000 *
b111001 )
1$
#640000
0$
b111000 +
#645000
b111010 )
1$
#650000
0$
b111001 +
#655000
b111011 )
1$
#660000
0$
b111010 +
#665000
b111100 )
1$
#670000
0$
b111011 +
#675000
1#
b111101 )
1$
#680000
0$
b111100 +
#685000
b111110 )
1$
#690000
0$
b111101 +
#695000
b111111 )
1$
#700000
0$
b111110 +
#705000
b1000000 )
1$
#710000
0$
b111111 +
#715000
1"
0#
b1110111100000000 *
b1000001 )
1$
#720000
0$
b1000000 +
#725000
b1000010 )
1$
#730000
0$
b1000001 +
#735000
b1000011 )
1$
#740000
0$
b1000010 +
#745000
b1000100 )
1$
#750000
0$
b1000011 +
#755000
1#
b1000101 )
1$
#760000
0$
b1000100 +
#765000
b1000110 )
1$
#770000
0$
b1000101 +
#775000
b1000111 )
1$
#780000
0$
b1000110 +
#785000
b1001000 )
1$
#790000
0$
b1000111 +
#795000
0#
b1101111000000000 *
b1001001 )
1$
#800000
0$
b1001000 +
#805000
b1001010 )
1$
#810000
0$
b1001001 +
#815000
b1001011 )
1$
#820000
0$
b1001010 +
#825000
b1001100 )
1$
#830000
0$
b1001011 +
#835000
1#
b1001101 )
1$
#840000
0$
b1001100 +
#845000
b1001110 )
1$
#850000
0$
b1001101 +
#855000
b1001111 )
1$
#860000
0$
b1001110 +
#865000
b1010000 )
1$
#870000
0$
b1001111 +
#875000
0#
b1011110000000000 *
b1010001 )
1$
#880000
0$
b1010000 +
#885000
b1010010 )
1$
#890000
0$
b1010001 +
#895000
b1010011 )
1$
#900000
0$
b1010010 +
#905000
b1010100 )
1$
#910000
0$
b1010011 +
#915000
1#
b1010101 )
1$
#920000
0$
b1010100 +
#925000
b1010110 )
1$
#930000
0$
b1010101 +
#935000
b1010111 )
1$
#940000
0$
b1010110 +
#945000
b1011000 )
1$
#950000
0$
b1010111 +
#955000
0"
0#
b111100000000000 *
b1011001 )
1$
#960000
0$
b1011000 +
#965000
b1011010 )
1$
#970000
0$
b1011001 +
#975000
b1011011 )
1$
#980000
0$
b1011010 +
#985000
b1011100 )
1$
#990000
0$
b1011011 +
#995000
1#
b1011101 )
1$
#1000000
0$
b1011100 +
#1005000
b1011110 )
1$
#1010000
0$
b1011101 +
#1015000
b1011111 )
1$
#1020000
0$
b1011110 +
#1025000
b1100000 )
1$
#1030000
0$
b1011111 +
#1035000
1"
0#
b1111000000000000 *
b1100001 )
1$
#1040000
0$
b1100000 +
#1045000
b1100010 )
1$
#1050000
0$
b1100001 +
#1055000
b1100011 )
1$
#1060000
0$
b1100010 +
#1065000
b1100100 )
1$
#1070000
0$
b1100011 +
#1075000
1#
b1100101 )
1$
#1080000
0$
b1100100 +
#1085000
b1100110 )
1$
#1090000
0$
b1100101 +
#1095000
b1100111 )
1$
#1100000
0$
b1100110 +
#1105000
b1101000 )
1$
#1110000
0$
b1100111 +
#1115000
0#
b1110000000000000 *
b1101001 )
1$
#1120000
0$
b1101000 +
#1125000
b1101010 )
1$
#1130000
0$
b1101001 +
#1135000
b1101011 )
1$
#1140000
0$
b1101010 +
#1145000
b1101100 )
1$
#1150000
0$
b1101011 +
#1155000
1#
b1101101 )
1$
#1160000
0$
b1101100 +
#1165000
b1101110 )
1$
#1170000
0$
b1101101 +
#1175000
b1101111 )
1$
#1180000
0$
b1101110 +
#1185000
b1110000 )
1$
#1190000
0$
b1101111 +
#1195000
0#
b1100000000000000 *
b1110001 )
1$
#1200000
0$
b1110000 +
#1205000
b1110010 )
1$
#1210000
0$
b1110001 +
#1215000
b1110011 )
1$
#1220000
0$
b1110010 +
#1225000
b1110100 )
1$
#1230000
0$
b1110011 +
#1235000
1#
b1110101 )
1$
#1240000
0$
b1110100 +
#1245000
b1110110 )
1$
#1250000
0$
b1110101 +
#1255000
b1110111 )
1$
#1260000
0$
b1110110 +
#1265000
b1111000 )
1$
#1270000
0$
b1110111 +
#1275000
0#
b1000000000000000 *
b1111001 )
1$
#1280000
0$
b1111000 +
#1285000
b1111010 )
1$
#1290000
0$
b1111001 +
#1295000
b1111011 )
1$
#1300000
0$
b1111010 +
#1305000
b1111100 )
1$
#1310000
0$
b1111011 +
#1315000
1#
b1111101 )
1$
#1320000
0$
b1111100 +
#1325000
b1111110 )
1$
#1330000
0$
b1111101 +
#1335000
b1111111 )
1$
#1340000
0$
b1111110 +
#1345000
b10000000 )
1$
#1350000
0$
b1111111 +
#1355000
0"
0#
b0 *
1!
1$
#1360000
0$
b10000000 +
#1365000
1$
#1370000
0$
b10000001 +
#1375000
1$
#1380000
0$
b10000010 +
#1385000
1$
#1390000
0$
b10000011 +
#1395000
1$
#1400000
0$
b10000100 +
#1405000
1$
#1410000
0$
b10000101 +
#1415000
1$
#1420000
0$
b10000110 +
#1425000
1$
#1430000
0$
b10000111 +
#1435000
1$
#1440000
0$
b10001000 +
#1445000
1$
#1450000
0$
b10001001 +
#1455000
1$
#1460000
0$
b10001010 +
#1465000
1$
#1470000
0$
b10001011 +
#1475000
1$
#1480000
0$
b10001100 +
#1485000
1$
#1490000
0$
b10001101 +
#1495000
1$
#1500000
0$
b10001110 +
#1505000
1$
#1510000
0$
b10001111 +
#1515000
1$
#1520000
0$
b10010000 +
#1525000
1$
#1530000
0$
b10010001 +
#1535000
1$
#1540000
0$
b10010010 +
#1545000
1$
#1550000
0$
b10010011 +
#1555000
1$
#1560000
0$
b10010100 +
#1565000
1$
#1570000
0$
b10010101 +
#1575000
1$
#1580000
0$
b10010110 +
#1585000
1$
#1590000
0$
b10010111 +
#1595000
1$
#1600000
0$
b10011000 +
#1605000
1$
#1610000
0$
b10011001 +
#1615000
1$
#1620000
0$
b10011010 +
#1625000
1$
#1630000
0$
b10011011 +
#1635000
1$
#1640000
0$
b10011100 +
#1645000
1$
#1650000
0$
b10011101 +
#1655000
1$
#1660000
0$
b10011110 +
#1665000
1$
#1670000
0$
b10011111 +
#1675000
1$
#1680000
0$
b10100000 +
#1685000
1$
#1690000
0$
b10100001 +
#1695000
1$
#1700000
0$
b10100010 +
#1705000
1$
#1710000
0$
b10100011 +
#1715000
1$
#1720000
0$
b10100100 +
#1725000
1$
#1730000
0$
b10100101 +
#1735000
1$
#1740000
0$
b10100110 +
#1745000
1$
#1750000
0$
b10100111 +
#1755000
1$
#1760000
0$
b10101000 +
#1765000
1$
#1770000
0$
b10101001 +
#1775000
1$
#1780000
0$
b10101010 +
#1785000
1$
#1790000
0$
b10101011 +
#1795000
1$
#1800000
0$
b10101100 +
#1805000
1$
#1810000
0$
b10101101 +
#1815000
1$
#1820000
0$
b10101110 +
#1825000
1$
#1830000
0$
b10101111 +
#1835000
1$
#1840000
0$
b10110000 +
#1845000
1$
#1850000
0$
b10110001 +
#1855000
1$
#1860000
0$
b10110010 +
#1865000
1$
#1870000
0$
b10110011 +
#1875000
1$
#1880000
0$
b10110100 +
#1885000
1$
#1890000
0$
b10110101 +
#1895000
1$
#1900000
0$
b10110110 +
#1905000
1$
#1910000
0$
b10110111 +
#1915000
1$
#1920000
0$
b10111000 +
#1925000
1$
#1930000
0$
b10111001 +
#1935000
1$
#1940000
0$
b10111010 +
#1945000
1$
#1950000
0$
b10111011 +
#1955000
1$
#1960000
0$
b10111100 +
#1965000
1$
#1970000
0$
b10111101 +
#1975000
1$
#1980000
0$
b10111110 +
#1985000
1$
#1990000
0$
b10111111 +
#1995000
1$
#2000000
0$
b11000000 +
#2005000
1$
#2010000
0$
b11000001 +
#2015000
1$
#2020000
0$
b11000010 +
#2025000
1$
#2030000
0$
b11000011 +
#2035000
1$
#2040000
0$
b11000100 +
#2045000
1$
#2050000
0$
b11000101 +
#2055000
1$
#2060000
0$
b11000110 +
#2065000
1$
#2070000
0$
b11000111 +
#2075000
1$
#2080000
0$
b11001000 +
#2085000
1$
#2090000
0$
b11001001 +
#2095000
1$
#2100000
0$
b11001010 +
#2105000
1$
#2110000
0$
b11001011 +
#2115000
1$
#2120000
0$
b11001100 +
#2125000
1$
#2130000
0$
b11001101 +
#2135000
1$
#2140000
0$
b11001110 +
#2145000
1$
#2150000
0$
b11001111 +
#2155000
1$
#2160000
0$
b11010000 +
#2165000
1$
#2170000
0$
b11010001 +
#2175000
1$
#2180000
0$
b11010010 +
#2185000
1$
#2190000
0$
b11010011 +
#2195000
1$
#2200000
0$
b11010100 +
#2205000
1$
#2210000
0$
b11010101 +
#2215000
1$
#2220000
0$
b11010110 +
#2225000
1$
#2230000
0$
b11010111 +
#2235000
1$
#2240000
0$
b11011000 +
#2245000
1$
#2250000
0$
b11011001 +
#2255000
1$
#2260000
0$
b11011010 +
#2265000
1$
#2270000
0$
b11011011 +
#2275000
1$
#2280000
0$
b11011100 +
#2285000
1$
#2290000
0$
b11011101 +
#2295000
1$
#2300000
0$
b11011110 +
#2305000
1$
#2310000
0$
b11011111 +
#2315000
1$
#2320000
0$
b11100000 +
#2325000
1$
#2330000
0$
b11100001 +
#2335000
1$
#2340000
0$
b11100010 +
#2345000
1$
#2350000
0$
b11100011 +
#2355000
1$
#2360000
0$
b11100100 +
#2365000
1$
#2370000
0$
b11100101 +
#2375000
1$
#2380000
0$
b11100110 +
#2385000
1$
#2390000
0$
b11100111 +
#2395000
1$
#2400000
0$
b11101000 +
#2405000
1$
#2410000
0$
b11101001 +
#2415000
1$
#2420000
0$
b11101010 +
#2425000
1$
#2430000
0$
b11101011 +
#2435000
1$
#2440000
0$
b11101100 +
#2445000
1$
#2450000
0$
b11101101 +
#2455000
1$
#2460000
0$
b11101110 +
#2465000
1$
#2470000
0$
b11101111 +
#2475000
1$
#2480000
0$
b11110000 +
#2485000
1$
#2490000
0$
b11110001 +
#2495000
1$
#2500000
0$
b11110010 +
#2505000
1$
#2510000
0$
b11110011 +
#2515000
1$
#2520000
0$
b11110100 +
#2525000
1$
#2530000
0$
b11110101 +
#2535000
1$
#2540000
0$
b11110110 +
#2545000
1$
#2550000
0$
b11110111 +
#2555000
1$
#2560000
0$
b11111000 +
#2565000
1$
#2570000
0$
b11111001 +
#2575000
1$
#2580000
0$
b11111010 +
#2585000
1$
#2590000
0$
b11111011 +
#2595000
1$
#2600000
0$
b11111100 +
#2605000
1$
#2610000
0$
b11111101 +
#2615000
1$
#2620000
0$
b11111110 +
#2625000
1$
#2630000
0$
b11111111 +
#2635000
1$
#2640000
0$
b100000000 +
#2645000
1$
#2650000
0$
b100000001 +
#2655000
1$
#2660000
0$
b100000010 +
#2665000
1$
#2670000
0$
b100000011 +
#2675000
1$
#2680000
0$
b100000100 +
#2685000
1$
#2690000
0$
b100000101 +
#2695000
1$
#2700000
0$
b100000110 +
#2705000
1$
#2710000
0$
b100000111 +
#2715000
1$
#2720000
0$
b100001000 +
#2725000
1$
#2730000
0$
b100001001 +
#2735000
1$
#2740000
0$
b100001010 +
#2745000
1$
#2750000
0$
b100001011 +
#2755000
1$
#2760000
0$
b100001100 +
#2765000
1$
#2770000
0$
b100001101 +
#2775000
1$
#2780000
0$
b100001110 +
#2785000
1$
#2790000
0$
b100001111 +
#2795000
1$
#2800000
0$
b100010000 +
#2805000
1$
#2810000
0$
b100010001 +
#2815000
1$
#2820000
0$
b100010010 +
#2825000
1$
#2830000
0$
b100010011 +
#2835000
1$
#2840000
0$
b100010100 +
#2845000
1$
#2850000
0$
b100010101 +
#2855000
1$
#2860000
0$
b100010110 +
#2865000
1$
#2870000
0$
b100010111 +
#2875000
1$
#2880000
0$
b100011000 +
#2885000
1$
#2890000
0$
b100011001 +
#2895000
1$
#2900000
0$
b100011010 +
#2905000
1$
#2910000
0$
b100011011 +
#2915000
1$
#2920000
0$
b100011100 +
#2925000
1$
#2930000
0$
b100011101 +
#2935000
1$
#2940000
0$
b100011110 +
#2945000
1$
#2950000
0$
b100011111 +
#2955000
1$
#2960000
0$
b100100000 +
#2965000
1$
#2970000
0$
b100100001 +
#2975000
1$
#2980000
0$
b100100010 +
#2985000
1$
#2990000
0$
b100100011 +
#2995000
1$
#3000000
0$
b100100100 +
#3005000
1$
#3010000
0$
b100100101 +
#3015000
1$
#3020000
0$
b100100110 +
#3025000
1$
#3030000
0$
b100100111 +
#3035000
1$
#3040000
0$
b100101000 +
#3045000
1$
#3050000
0$
b100101001 +
#3055000
1$
#3060000
0$
b100101010 +
#3065000
1$
#3070000
0$
b100101011 +
#3075000
1$
#3080000
0$
b100101100 +
