testing/pset3/sig.vcd
$date
	Thu Sep 22 02:10:18 2022
$end
$version
	Icarus Verilog
$end
$timescale
	1ps
$end
$scope module sig_tb $end
$var wire 1 ! status_out $end
$var wire 1 " data_out $end
$var reg 1 # clk_in $end
$var reg 16 $ msg_in [15:0] $end
$var reg 1 % rst_in $end
$var reg 1 & trigger_in $end
$scope module uut $end
$var wire 1 # clk_in $end
$var wire 16 ' msg_in [15:0] $end
$var wire 1 % rst_in $end
$var wire 1 & trigger_in $end
$var wire 1 " data_out $end
$var reg 6 ( bit_counter [5:0] $end
$var reg 16 ) msg_buffer [15:0] $end
$var reg 1 ! status_out $end
$upscope $end
$scope begin $ivl_for_loop0 $end
$var integer 32 * i [31:0] $end
$upscope $end
$upscope $end
$enddefinitions $end
#0
$dumpvars
b0 *
bx )
bx (
b1011111011101111 '
0&
0%
b1011111011101111 $
0#
x"
x!
$end
#5000
1#
#10000
0#
1%
#15000
0"
0!
b0 )
1#
#20000
0#
0%
#25000
1#
#30000
0#
#35000
1#
#40000
0#
#45000
1#
#50000
0#
#55000
1#
#60000
0#
#65000
1#
#70000
0#
1&
#75000
1"
b1 (
1!
b1011111011101111 )
1#
#80000
0#
0&
#85000
b10 (
1#
#90000
0#
b1 *
#95000
0"
b111110111011110 )
b11 (
1#
#100000
0#
b10 *
#105000
b100 (
1#
#110000
0#
b11 *
#115000
1"
b1111101110111100 )
b101 (
1#
#120000
0#
b100 *
#125000
b110 (
1#
#130000
0#
b101 *
#135000
b1111011101111000 )
b111 (
1#
#140000
0#
b110 *
#145000
b1000 (
1#
#150000
0#
b111 *
#155000
b1110111011110000 )
b1001 (
1#
#160000
0#
b1000 *
#165000
b1010 (
1#
#170000
0#
b1001 *
#175000
b1101110111100000 )
b1011 (
1#
#180000
0#
b1010 *
#185000
b1100 (
1#
#190000
0#
b1011 *
#195000
b1011101111000000 )
b1101 (
1#
#200000
0#
b1100 *
#205000
b1110 (
1#
#210000
0#
b1101 *
#215000
0"
b111011110000000 )
b1111 (
1#
#220000
0#
b1110 *
#225000
b10000 (
1#
#230000
0#
b1111 *
#235000
1"
b1110111100000000 )
b10001 (
1#
#240000
0#
b10000 *
#245000
b10010 (
1#
#250000
0#
b10001 *
#255000
b1101111000000000 )
b10011 (
1#
#260000
0#
b10010 *
#265000
b10100 (
1#
#270000
0#
b10011 *
#275000
b1011110000000000 )
b10101 (
1#
#280000
0#
b10100 *
#285000
b10110 (
1#
#290000
0#
b10101 *
#295000
0"
b111100000000000 )
b10111 (
1#
#300000
0#
b10110 *
#305000
b11000 (
1#
#310000
0#
b10111 *
#315000
1"
b1111000000000000 )
b11001 (
1#
#320000
0#
b11000 *
#325000
b11010 (
1#
#330000
0#
b11001 *
#335000
b1110000000000000 )
b11011 (
1#
#340000
0#
b11010 *
#345000
b11100 (
1#
#350000
0#
b11011 *
#355000
b1100000000000000 )
b11101 (
1#
#360000
0#
b11100 *
#365000
b11110 (
1#
#370000
0#
b11101 *
#375000
b1000000000000000 )
b11111 (
1#
#380000
0#
b11110 *
#385000
b100000 (
1#
#390000
0#
b11111 *
#395000
0"
b0 )
0!
1#
#400000
0#
b100000 *
#405000
1#
#410000
0#
b100001 *
#415000
1#
#420000
0#
b100010 *
#425000
1#
#430000
0#
b100011 *
#435000
1#
#440000
0#
b100100 *
#445000
1#
#450000
0#
b100101 *
#455000
1#
#460000
0#
b100110 *
#465000
1#
#470000
0#
b100111 *
#475000
1#
#480000
0#
b101000 *
#485000
1#
#490000
0#
b101001 *
#495000
1#
#500000
0#
b101010 *
#505000
1#
#510000
0#
b101011 *
#515000
1#
#520000
0#
b101100 *
#525000
1#
#530000
0#
b101101 *
#535000
1#
#540000
0#
b101110 *
#545000
1#
#550000
0#
b101111 *
#555000
1#
#560000
0#
b110000 *
#565000
1#
#570000
0#
b110001 *
#575000
1#
#580000
0#
b110010 *
#585000
1#
#590000
0#
b110011 *
#595000
1#
#600000
0#
b110100 *
#605000
1#
#610000
0#
b110101 *
#615000
1#
#620000
0#
b110110 *
#625000
1#
#630000
0#
b110111 *
#635000
1#
#640000
0#
b111000 *
#645000
1#
#650000
0#
b111001 *
#655000
1#
#660000
0#
b111010 *
#665000
1#
#670000
0#
b111011 *
#675000
1#
#680000
0#
b111100 *
#685000
1#
#690000
0#
b111101 *
#695000
1#
#700000
0#
b111110 *
#705000
1#
#710000
0#
b111111 *
#715000
1#
#720000
0#
b1000000 *
#725000
1#
#730000
0#
b1000001 *
#735000
1#
#740000
0#
b1000010 *
#745000
1#
#750000
0#
b1000011 *
#755000
1#
#760000
0#
b1000100 *
#765000
1#
#770000
0#
b1000101 *
#775000
1#
#780000
0#
b1000110 *
#785000
1#
#790000
0#
b1000111 *
#795000
1#
#800000
0#
b1001000 *
#805000
1#
#810000
0#
b1001001 *
#815000
1#
#820000
0#
b1001010 *
#825000
1#
#830000
0#
b1001011 *
#835000
1#
#840000
0#
b1001100 *
#845000
1#
#850000
0#
b1001101 *
#855000
1#
#860000
0#
b1001110 *
#865000
1#
#870000
0#
b1001111 *
#875000
1#
#880000
0#
b1010000 *
#885000
1#
#890000
0#
b1010001 *
#895000
1#
#900000
0#
b1010010 *
#905000
1#
#910000
0#
b1010011 *
#915000
1#
#920000
0#
b1010100 *
#925000
1#
#930000
0#
b1010101 *
#935000
1#
#940000
0#
b1010110 *
#945000
1#
#950000
0#
b1010111 *
#955000
1#
#960000
0#
b1011000 *
#965000
1#
#970000
0#
b1011001 *
#975000
1#
#980000
0#
b1011010 *
#985000
1#
#990000
0#
b1011011 *
#995000
1#
#1000000
0#
b1011100 *
#1005000
1#
#1010000
0#
b1011101 *
#1015000
1#
#1020000
0#
b1011110 *
#1025000
1#
#1030000
0#
b1011111 *
#1035000
1#
#1040000
0#
b1100000 *
#1045000
1#
#1050000
0#
b1100001 *
#1055000
1#
#1060000
0#
b1100010 *
#1065000
1#
#1070000
0#
b1100011 *
#1075000
1#
#1080000
0#
b1100100 *
